<?xml version="1.0" encoding="utf-8"?>
<!-- Generator: Adobe Illustrator 18.0.0, SVG Export Plug-In . SVG Version: 6.00 Build 0)  -->
<!DOCTYPE svg PUBLIC "-//W3C//DTD SVG 1.1//EN" "http://www.w3.org/Graphics/SVG/1.1/DTD/svg11.dtd">
<svg version="1.1" id="Layer_1" xmlns="http://www.w3.org/2000/svg" xmlns:xlink="http://www.w3.org/1999/xlink" x="0px" y="0px"
	 viewBox="0 0 159 239" enable-background="new 0 0 159 239" xml:space="preserve">
<rect x="66.7" y="140.4" fill="#DDB773" width="24.6" height="26.8"/>
<path fill="#E5E5E5" d="M158.5,214c0,13.8-11.2,25-25,25h-109c-13.8,0-25-11.2-25-25v-26.5c0-13.8,11.2-25,25-25h109
	c13.8,0,25,11.2,25,25V214z"/>
<path fill="#C5995F" d="M37.5,106.7c0,6.2-5,11.2-11.2,11.2c-6.2,0-11.2-5-11.2-11.2V89.8c0-6.2,5-11.2,11.2-11.2
	c6.2,0,11.2,5,11.2,11.2V106.7z"/>
<path fill="#C5995F" d="M127.2,92.5c0,27.1-22.1,49.1-49.3,49.1c-27.2,0-49.3-22-49.3-49.1S50.7,43.4,78,43.4
	C105.2,43.4,127.2,65.4,127.2,92.5"/>
<path fill="#C5995F" d="M127.2,144.4c0,3.3-2.7,6-6,6H34.7c-3.3,0-6-2.7-6-6V96.5c0-3.3,2.7-6,6-6h86.5c3.3,0,6,2.7,6,6V144.4z"/>
<rect x="28.3" y="80.1" fill="#B74434" width="6.4" height="140.5"/>
<path fill="#FDE3AD" d="M84.6,128.9c0.9,0.9,0.9,2.2,0,3.1c-0.9,0.9-2.2,0.9-3.1,0c-0.9-0.9-0.9-2.2,0-3.1
	C82.4,128.1,83.7,128.1,84.6,128.9"/>
<rect x="28.7" y="78.6" fill="#DD553D" width="98.5" height="12.2"/>
<path fill="#DDB773" d="M129.8,78.6c-1.5,0-3,0.3-4.3,0.8c-5.7-20.7-24.7-35.9-47.2-36.1v106.9h43c3.3,0,6-2.7,6-6v-26.8
	c0.8,0.2,1.6,0.3,2.5,0.3c6.2,0,11.2-5,11.2-11.2V89.8C141,83.6,136,78.6,129.8,78.6z"/>
<rect x="78.3" y="78.6" fill="#F26647" width="49.3" height="12.2"/>
<g>
	<path fill="#404040" d="M62.1,94.8c0.9,0.9,0.9,2.2,0,3.1c-0.9,0.9-2.2,0.9-3.1,0c-0.9-0.9-0.9-2.2,0-3.1
		C59.8,93.9,61.2,93.9,62.1,94.8"/>
	<g>
		<path fill="#404040" d="M48.3,98.1c-0.9-0.9-0.9-2.2,0-3.1c0.9-0.9,2.2-0.9,3.1,0c0.9,0.9,0.9,2.2,0,3.1
			C50.5,98.9,49.1,98.9,48.3,98.1"/>
		<path fill="#404040" d="M58.8,95c-2.1,2-5.4,2-7.4,0l-3.1,3.1c3.8,3.8,9.9,3.8,13.6,0L58.8,95z"/>
	</g>
</g>
<g>
	<path fill="#404040" d="M94.5,94.8c-0.9,0.9-0.9,2.2,0,3.1c0.9,0.9,2.2,0.9,3.1,0c0.9-0.9,0.9-2.2,0-3.1C96.8,94,95.4,94,94.5,94.8
		"/>
	<path fill="#404040" d="M108.3,98.1c0.9-0.9,0.9-2.2,0-3.1c-0.9-0.9-2.2-0.9-3.1,0c-0.9,0.9-0.9,2.2,0,3.1
		C106.1,98.9,107.5,98.9,108.3,98.1"/>
	<path fill="#404040" d="M97.8,95c2.1,2,5.4,2,7.4,0l3.1,3.1c-3.8,3.8-9.9,3.8-13.6,0L97.8,95z"/>
</g>
<path fill="#E1BA4B" d="M137.7,106.6c0,1.1-0.9,2.1-2.1,2.1c-1.1,0-2.1-0.9-2.1-2.1c0-1.1,0.9-2.1,2.1-2.1
	C136.8,104.6,137.7,105.5,137.7,106.6"/>
<g>
	<rect x="72.6" y="137.2" fill="#AD7F60" width="10.8" height="4.4"/>
	<path fill="#AD7F60" d="M84.9,140.9c0.9-0.9,0.9-2.2,0-3.1c-0.9-0.9-2.2-0.9-3.1,0c-0.9,0.9-0.9,2.2,0,3.1
		C82.6,141.8,84,141.8,84.9,140.9"/>
	<path fill="#AD7F60" d="M74.1,140.9c0.9-0.9,0.9-2.2,0-3.1c-0.9-0.9-2.2-0.9-3.1,0c-0.9,0.9-0.9,2.2,0,3.1
		C71.9,141.8,73.3,141.8,74.1,140.9"/>
</g>
<path fill="#404040" d="M37,17c-5.1,10.1-4.5,22.6,2.7,32.2C49.8,63,69.2,65.9,82.9,55.8c3.8-2.8,6.8-6.3,8.9-10.2
	C73.5,14.1,39.7,49.3,37,17z"/>
<path fill="#404040" d="M72.6,0c-8.1,3.6-14,11.4-14.5,20.9C57.4,34.2,67.6,45.6,81,46.4c3.7,0.2,7.3-0.4,10.5-1.8
	C83.7,30.5,58.1,20.9,72.6,0z"/>
<rect x="79.3" y="162.6" fill="#FFFFFF" width="54.3" height="76.4"/>
<polygon fill="#EAC582" points="79.2,194.6 53.2,162.6 105.3,162.6 "/>
<polygon fill="#C5995F" points="79.3,162.6 53.2,162.6 79.2,194.6 79.3,194.5 "/>
<path fill="#C5995F" d="M23,162.6c-13.1,0.8-23.5,11.6-23.5,24.9V214c0,13.3,10.4,24.1,23.5,24.9V162.6z"/>
<path fill="#DDB773" d="M133.5,162.6V239c13.7-0.1,24.9-11.2,24.9-25v-26.5C158.4,173.8,147.3,162.7,133.5,162.6z"/>
<path fill="#404040" d="M86.4,61.9c5.9-1.7,10.3-5.9,10.9-11.3c0.8-7.6-6.4-14.6-16-15.5c-2.7-0.3-5.2-0.1-7.6,0.6
	C79,44,97.3,50.6,86.4,61.9z"/>
</svg>
