<?xml version="1.0" encoding="utf-8"?>
<!-- Generator: Adobe Illustrator 18.0.0, SVG Export Plug-In . SVG Version: 6.00 Build 0)  -->
<!DOCTYPE svg PUBLIC "-//W3C//DTD SVG 1.1//EN" "http://www.w3.org/Graphics/SVG/1.1/DTD/svg11.dtd">
<svg version="1.1" id="Layer_1" xmlns="http://www.w3.org/2000/svg" xmlns:xlink="http://www.w3.org/1999/xlink" x="0px" y="0px"
	 viewBox="0 0 198 228" enable-background="new 0 0 198 228" xml:space="preserve">
<g>
	<rect x="86.9" y="129.3" fill="#EAC582" width="24.5" height="26.8"/>
	<path fill="#E5E5E5" d="M178.6,203c0,13.8-11.2,25-25,25H44.8c-13.8,0-25-11.2-25-25v-26.5c0-13.8,11.2-25,25-25h108.8
		c13.8,0,25,11.2,25,25V203z"/>
	<path fill="#EAC582" d="M57.7,95.6c0,6.2-5,11.2-11.2,11.2c-6.2,0-11.2-5-11.2-11.2V78.7c0-6.2,5-11.2,11.2-11.2
		c6.2,0,11.2,5,11.2,11.2V95.6z"/>
	<path fill="#FFFFFF" d="M153.9,151.5H99.5V228h54.4c13.8,0,25-11.2,25-25v-26.5C178.9,162.7,167.7,151.5,153.9,151.5"/>
	<path fill="#EAC582" d="M147.3,81.4c0,27.2-22,49.2-49.2,49.2c-27.2,0-49.2-22-49.2-49.2s22-49.2,49.2-49.2
		C125.3,32.2,147.3,54.2,147.3,81.4"/>
	<path fill="#EAC582" d="M147.3,133.3c0,3.3-2.7,6-6,6H54.9c-3.3,0-6-2.7-6-6V85.4c0-3.3,2.7-6,6-6h86.4c3.3,0,6,2.7,6,6V133.3z"/>
	<path fill="#FDE3AD" d="M104.8,117.8c0.9,0.9,0.9,2.2,0,3.1c-0.9,0.9-2.2,0.9-3.1,0c-0.9-0.9-0.9-2.2,0-3.1
		C102.5,116.9,103.9,116.9,104.8,117.8"/>
	<path fill="#FDE3AD" d="M149.9,67.5c-1.5,0-3,0.3-4.3,0.8c-5.7-20.7-24.6-36-47.2-36.1v107h42.9c3.3,0,6-2.7,6-6v-26.8
		c0.8,0.2,1.6,0.3,2.5,0.3c6.2,0,11.2-5,11.2-11.2V78.7C161.1,72.5,156.1,67.5,149.9,67.5z"/>
	<ellipse fill="#CD9873" cx="99.1" cy="115" rx="10" ry="9.9"/>
	<path fill="#6E6D6E" d="M118.2,113.9c-0.4-5.7-8.7-14.2-18.9-14.2s-18.5,8.5-18.9,14.2H118.2z"/>
	<path fill="#FDE3AD" d="M112.4,139.3c-0.3-5.7-6.4-10.2-14-10.2c-7.5,0-13.7,4.5-14,10.2H112.4z"/>
	<path fill="#FFFFFF" d="M162.5,72.4c0,3.3-2.7,6-6,6H42.1c-3.3,0-6-2.7-6-6V6c0-3.3,2.7-6,6-6h114.4c3.3,0,6,2.7,6,6V72.4z"/>
	<path fill="#E5E5E5" d="M98.8,0H41.6c-3.3,0-6,2.7-6,6v66.4c0,3.3,2.7,6,6,6h57.2V0z"/>
	<g>
		<path fill="#E5E5E5" d="M46.5,58.2c5.8,0,10.6,4.7,10.6,10.6c0,5.8-4.7,10.6-10.6,10.6c-5.8,0-10.6-4.7-10.6-10.6
			C35.9,62.9,40.7,58.2,46.5,58.2"/>
		<g>
			<path fill="#E5E5E5" d="M10.6,116.4c-5.8,0-10.6-4.7-10.6-10.6c0-5.8,4.7-10.6,10.6-10.6c5.8,0,10.6,4.7,10.6,10.6
				C21.2,111.6,16.4,116.4,10.6,116.4"/>
			<path fill="#E5E5E5" d="M35.9,69.9c0,14-11.3,25.3-25.3,25.3l0,21.2c25.7,0,46.5-20.8,46.5-46.5L35.9,69.9z"/>
		</g>
	</g>
	<g>
		<path fill="#FFFFFF" d="M151.5,58.1c-5.8,0-10.6,4.7-10.6,10.6c0,5.8,4.7,10.6,10.6,10.6c5.8,0,10.6-4.7,10.6-10.6
			C162.1,62.8,157.3,58.1,151.5,58.1"/>
		<g>
			<path fill="#FFFFFF" d="M187.4,116.3c5.8,0,10.6-4.7,10.6-10.6c0-5.8-4.7-10.6-10.6-10.6c-5.8,0-10.6,4.7-10.6,10.6
				C176.8,111.5,181.6,116.3,187.4,116.3"/>
			<path fill="#FFFFFF" d="M162.1,69.8c0,14,11.3,25.3,25.3,25.3l0,21.2c-25.7,0-46.5-20.8-46.5-46.5L162.1,69.8z"/>
		</g>
	</g>
	<polygon fill="#CF6228" points="108.9,47.6 98.2,41.9 87.4,47.5 89.6,35.5 80.9,26.9 93,25.3 98.4,14.4 103.7,25.4 115.7,27.2 
		106.9,35.6 	"/>
	<path fill="#D0993A" d="M117.3,23.2c2.1,3.3,3.3,7.3,3.3,11.5c0,12-9.8,21.8-21.8,21.8c-12,0-21.8-9.7-21.8-21.8
		c0-4.2,1.2-8.2,3.3-11.5l-3.8-6.5c-4,4.9-6.4,11.2-6.4,18c0,15.8,12.8,28.6,28.7,28.6c15.8,0,28.7-12.8,28.7-28.6
		c0-6.8-2.4-13.1-6.4-18L117.3,23.2z"/>
	<g>
		<path fill="#404040" d="M82.3,81.7c0.9,0.9,0.9,2.2,0,3.1c-0.9,0.9-2.2,0.9-3.1,0c-0.9-0.9-0.9-2.2,0-3.1
			C80,80.8,81.4,80.8,82.3,81.7"/>
		<g>
			<path fill="#404040" d="M68.5,84.9c-0.9-0.9-0.9-2.2,0-3.1c0.9-0.9,2.2-0.9,3.1,0c0.9,0.9,0.9,2.2,0,3.1
				C70.7,85.8,69.3,85.8,68.5,84.9"/>
			<path fill="#404040" d="M79,81.8c-2,2-5.4,2-7.4,0l-3.1,3.1c3.8,3.8,9.9,3.8,13.6,0L79,81.8z"/>
		</g>
	</g>
	<g>
		<path fill="#404040" d="M114.7,81.7c-0.9,0.9-0.9,2.2,0,3.1c0.9,0.9,2.2,0.9,3.1,0c0.9-0.9,0.9-2.2,0-3.1
			C116.9,80.8,115.6,80.8,114.7,81.7"/>
		<path fill="#404040" d="M128.5,84.9c0.9-0.9,0.9-2.2,0-3.1c-0.9-0.9-2.2-0.9-3.1,0c-0.9,0.9-0.9,2.2,0,3.1
			C126.2,85.8,127.6,85.8,128.5,84.9"/>
		<path fill="#404040" d="M118,81.8c2,2,5.4,2,7.4,0l3.1,3.1c-3.8,3.8-9.9,3.8-13.6,0L118,81.8z"/>
	</g>
	<path fill="#E5E5E5" d="M95.7,143.8c-3.3-4.5-9.1-4.5-9.1-4.5H72.2v14.2h14.4h12.2C98.8,153.5,99.9,149.6,95.7,143.8z"/>
	<path fill="#FFFFFF" d="M102.3,143.8c3.3-4.5,9.1-4.5,9.1-4.5h14.4v14.2h-14.4H99.2C99.2,153.5,98.1,149.6,102.3,143.8z"/>
</g>
</svg>
